<?xml version='1.0' encoding='UTF-8'?>
<!-- This file was generated by dvisvgm 2.13.1 -->
<svg version='1.1' xmlns='http://www.w3.org/2000/svg' xmlns:xlink='http://www.w3.org/1999/xlink' width='141.686503pt' height='194.476283pt' viewBox='123.62464 141.088759 141.686503 194.476283'>
<defs>
<path id='g3-50' d='M2.247572-1.625903C2.375093-1.745455 2.709838-2.008468 2.83736-2.12005C3.331507-2.574346 3.801743-3.012702 3.801743-3.737983C3.801743-4.686426 3.004732-5.300125 2.008468-5.300125C1.052055-5.300125 .422416-4.574844 .422416-3.865504C.422416-3.474969 .73325-3.419178 .844832-3.419178C1.012204-3.419178 1.259278-3.53873 1.259278-3.841594C1.259278-4.25604 .860772-4.25604 .765131-4.25604C.996264-4.837858 1.530262-5.037111 1.920797-5.037111C2.662017-5.037111 3.044583-4.407472 3.044583-3.737983C3.044583-2.909091 2.462765-2.303362 1.522291-1.338979L.518057-.302864C.422416-.215193 .422416-.199253 .422416 0H3.57061L3.801743-1.42665H3.55467C3.53076-1.267248 3.466999-.868742 3.371357-.71731C3.323537-.653549 2.717808-.653549 2.590286-.653549H1.171606L2.247572-1.625903Z'/>
<path id='g0-0' d='M5.571108-1.809215C5.69863-1.809215 5.873973-1.809215 5.873973-1.992528S5.69863-2.175841 5.571108-2.175841H1.004234C.876712-2.175841 .70137-2.175841 .70137-1.992528S.876712-1.809215 1.004234-1.809215H5.571108Z'/>
<path id='g1-97' d='M3.124284-3.036613C3.052553-3.172105 2.82142-3.514819 2.335243-3.514819C1.3868-3.514819 .342715-2.406974 .342715-1.227397C.342715-.398506 .876712 .079701 1.490411 .079701C2.000498 .079701 2.438854-.326775 2.582316-.486177C2.725778 .063761 3.267746 .079701 3.363387 .079701C3.730012 .079701 3.913325-.223163 3.977086-.358655C4.136488-.645579 4.24807-1.107846 4.24807-1.139726C4.24807-1.187547 4.216189-1.243337 4.120548-1.243337S4.008966-1.195517 3.961146-.996264C3.849564-.557908 3.698132-.143462 3.387298-.143462C3.203985-.143462 3.132254-.294894 3.132254-.518057C3.132254-.653549 3.203985-.924533 3.251806-1.123786S3.419178-1.801245 3.451059-1.944707L3.610461-2.550436C3.650311-2.741719 3.737983-3.076463 3.737983-3.116314C3.737983-3.299626 3.58655-3.363387 3.482939-3.363387C3.363387-3.363387 3.164134-3.283686 3.124284-3.036613ZM2.582316-.860772C2.183811-.310834 1.769365-.143462 1.514321-.143462C1.147696-.143462 .964384-.478207 .964384-.892653C.964384-1.267248 1.179577-2.12005 1.354919-2.470735C1.586052-2.956912 1.976588-3.291656 2.343213-3.291656C2.86127-3.291656 3.012702-2.709838 3.012702-2.614197C3.012702-2.582316 2.81345-1.801245 2.765629-1.594022C2.662017-1.219427 2.662017-1.203487 2.582316-.860772Z'/>
<path id='g1-98' d='M1.944707-5.292154C1.952677-5.308095 1.976588-5.411706 1.976588-5.419676C1.976588-5.459527 1.944707-5.531258 1.849066-5.531258C1.817186-5.531258 1.570112-5.507347 1.3868-5.491407L.940473-5.459527C.765131-5.443587 .68543-5.435616 .68543-5.292154C.68543-5.180573 .797011-5.180573 .892653-5.180573C1.275218-5.180573 1.275218-5.132752 1.275218-5.061021C1.275218-5.0132 1.195517-4.694396 1.147696-4.511083L.454296-1.737484C.390535-1.466501 .390535-1.346949 .390535-1.211457C.390535-.390535 .892653 .079701 1.506351 .079701C2.486675 .079701 3.506849-1.052055 3.506849-2.207721C3.506849-2.996762 2.996762-3.514819 2.359153-3.514819C1.912827-3.514819 1.570112-3.227895 1.39477-3.076463L1.944707-5.292154ZM1.506351-.143462C1.219427-.143462 .932503-.366625 .932503-.948443C.932503-1.163636 .964384-1.362889 1.060025-1.745455C1.115816-1.976588 1.171606-2.199751 1.235367-2.430884C1.275218-2.574346 1.275218-2.590286 1.370859-2.709838C1.641843-3.044583 2.000498-3.291656 2.335243-3.291656C2.733748-3.291656 2.885181-2.901121 2.885181-2.542466C2.885181-2.247572 2.709838-1.39477 2.470735-.924533C2.263512-.494147 1.880946-.143462 1.506351-.143462Z'/>
<path id='g4-1' d='M5.152677-8.320797C5.068991-8.488169 5.045081-8.53599 4.877709-8.53599C4.698381-8.53599 4.674471-8.488169 4.590785-8.320797L.597758-.239103C.573848-.203238 .549938-.131507 .549938-.083686C.549938-.011955 .561893 0 .800996 0H8.942466C9.181569 0 9.193524-.011955 9.193524-.083686C9.193524-.131507 9.169614-.203238 9.145704-.239103L5.152677-8.320797ZM4.507098-7.436115L7.770859-.824907H1.255293L4.507098-7.436115Z'/>
<path id='g4-48' d='M5.355915-3.825654C5.355915-4.817933 5.296139-5.786301 4.865753-6.694894C4.375592-7.687173 3.514819-7.950187 2.929016-7.950187C2.235616-7.950187 1.3868-7.603487 .944458-6.611208C.609714-5.858032 .490162-5.116812 .490162-3.825654C.490162-2.666002 .573848-1.793275 1.004234-.944458C1.470486-.035866 2.295392 .251059 2.917061 .251059C3.957161 .251059 4.554919-.37061 4.901619-1.06401C5.332005-1.960648 5.355915-3.132254 5.355915-3.825654ZM2.917061 .011955C2.534496 .011955 1.75741-.203238 1.530262-1.506351C1.398755-2.223661 1.398755-3.132254 1.398755-3.969116C1.398755-4.94944 1.398755-5.834122 1.590037-6.539477C1.793275-7.340473 2.402989-7.711083 2.917061-7.711083C3.371357-7.711083 4.064757-7.436115 4.291905-6.40797C4.447323-5.726526 4.447323-4.782067 4.447323-3.969116C4.447323-3.16812 4.447323-2.259527 4.315816-1.530262C4.088667-.215193 3.335492 .011955 2.917061 .011955Z'/>
<path id='g2-60' d='M7.878456-5.822167C8.093649-5.917808 8.117559-6.001494 8.117559-6.073225C8.117559-6.204732 8.021918-6.300374 7.890411-6.300374C7.866501-6.300374 7.854545-6.288418 7.687173-6.216687L1.219427-3.239851C1.004234-3.144209 .980324-3.060523 .980324-2.988792C.980324-2.905106 .992279-2.833375 1.219427-2.725778L7.687173 .251059C7.84259 .32279 7.866501 .334745 7.890411 .334745C8.021918 .334745 8.117559 .239103 8.117559 .107597C8.117559 .035866 8.093649-.047821 7.878456-.143462L1.721544-2.976837L7.878456-5.822167Z'/>
<path id='g2-62' d='M7.878456-2.725778C8.105604-2.833375 8.117559-2.905106 8.117559-2.988792C8.117559-3.060523 8.093649-3.144209 7.878456-3.239851L1.41071-6.216687C1.255293-6.288418 1.231382-6.300374 1.207472-6.300374C1.06401-6.300374 .980324-6.180822 .980324-6.085181C.980324-5.941719 1.075965-5.893898 1.231382-5.822167L7.376339-2.988792L1.219427-.143462C.980324-.035866 .980324 .047821 .980324 .119552C.980324 .215193 1.06401 .334745 1.207472 .334745C1.231382 .334745 1.243337 .32279 1.41071 .251059L7.878456-2.725778Z'/>
<path id='g2-97' d='M3.598506-1.422665C3.53873-1.219427 3.53873-1.195517 3.371357-.968369C3.108344-.633624 2.582316-.119552 2.020423-.119552C1.530262-.119552 1.255293-.561893 1.255293-1.267248C1.255293-1.924782 1.625903-3.263761 1.853051-3.765878C2.259527-4.60274 2.82142-5.033126 3.287671-5.033126C4.076712-5.033126 4.23213-4.052802 4.23213-3.957161C4.23213-3.945205 4.196264-3.789788 4.184309-3.765878L3.598506-1.422665ZM4.363636-4.483188C4.23213-4.794022 3.90934-5.272229 3.287671-5.272229C1.936737-5.272229 .478207-3.526775 .478207-1.75741C.478207-.573848 1.171606 .119552 1.984558 .119552C2.642092 .119552 3.203985-.394521 3.53873-.789041C3.658281-.083686 4.220174 .119552 4.578829 .119552S5.224408-.095641 5.439601-.526027C5.630884-.932503 5.798257-1.661768 5.798257-1.709589C5.798257-1.769365 5.750436-1.817186 5.678705-1.817186C5.571108-1.817186 5.559153-1.75741 5.511333-1.578082C5.332005-.872727 5.104857-.119552 4.614695-.119552C4.267995-.119552 4.244085-.430386 4.244085-.669489C4.244085-.944458 4.27995-1.075965 4.387547-1.542217C4.471233-1.841096 4.531009-2.10411 4.62665-2.450809C5.068991-4.244085 5.176588-4.674471 5.176588-4.746202C5.176588-4.913574 5.045081-5.045081 4.865753-5.045081C4.483188-5.045081 4.387547-4.62665 4.363636-4.483188Z'/>
<path id='g2-120' d='M5.66675-4.877709C5.284184-4.805978 5.140722-4.519054 5.140722-4.291905C5.140722-4.004981 5.36787-3.90934 5.535243-3.90934C5.893898-3.90934 6.144956-4.220174 6.144956-4.542964C6.144956-5.045081 5.571108-5.272229 5.068991-5.272229C4.339726-5.272229 3.93325-4.554919 3.825654-4.327771C3.550685-5.224408 2.809465-5.272229 2.594271-5.272229C1.374844-5.272229 .729265-3.706102 .729265-3.443088C.729265-3.395268 .777086-3.335492 .860772-3.335492C.956413-3.335492 .980324-3.407223 1.004234-3.455044C1.41071-4.782067 2.211706-5.033126 2.558406-5.033126C3.096389-5.033126 3.203985-4.531009 3.203985-4.244085C3.203985-3.981071 3.132254-3.706102 2.988792-3.132254L2.582316-1.494396C2.402989-.777086 2.056289-.119552 1.422665-.119552C1.362889-.119552 1.06401-.119552 .812951-.274969C1.243337-.358655 1.338979-.71731 1.338979-.860772C1.338979-1.099875 1.159651-1.243337 .932503-1.243337C.645579-1.243337 .334745-.992279 .334745-.609714C.334745-.107597 .896638 .119552 1.41071 .119552C1.984558 .119552 2.391034-.334745 2.642092-.824907C2.833375-.119552 3.431133 .119552 3.873474 .119552C5.092902 .119552 5.738481-1.446575 5.738481-1.709589C5.738481-1.769365 5.69066-1.817186 5.618929-1.817186C5.511333-1.817186 5.499377-1.75741 5.463512-1.661768C5.140722-.609714 4.447323-.119552 3.90934-.119552C3.490909-.119552 3.263761-.430386 3.263761-.920548C3.263761-1.183562 3.311582-1.374844 3.502864-2.163885L3.921295-3.789788C4.100623-4.507098 4.507098-5.033126 5.057036-5.033126C5.080946-5.033126 5.415691-5.033126 5.66675-4.877709Z'/>
</defs>
<g id='page1'>
<g transform='matrix(0.996264 0 0 0.996264 123.625 141.089)'>
<path d='M 0.250937 194.955L 141.967 194.955L 141.967 0.250937L 0.250937 0.250937L 0.250937 194.955Z' fill='none' stroke='#000000' stroke-linecap='round' stroke-linejoin='round' stroke-miterlimit='10.0375' stroke-width='0.501875'/>
</g>
<g>
</g>
<g>
<g transform='matrix(0.996264 0 0 0.996264 123.625 141.089)'>
<path d='M 67.4672 188.511L 67.4672 6.6943' fill='none' stroke='#000000' stroke-dasharray='7.90509,7.90509' stroke-linecap='round' stroke-linejoin='round' stroke-miterlimit='10.0375' stroke-width='1.00375'/>
</g>
</g>
<g>
</g>
<g>
<g transform='matrix(0.996264 0 0 0.996264 123.625 141.089)'>
<path d='M 128.246 87.5576L 6.44336 87.5576' fill='none' stroke='#000000' stroke-linecap='round' stroke-linejoin='round' stroke-miterlimit='10.0375' stroke-width='0.501875'/>
</g>
</g>
<g>
</g>
<g>
<g transform='matrix(0.996264 0 0 0.996264 123.625 141.089)'>
<path d='M 135.774 87.5576L 128.246 85.5405L 128.246 89.5748L 135.774 87.5576Z' fill='#000000'/>
</g>
</g>
<g>
</g>
<g>
<g transform='matrix(0.996264 0 0 0.996264 123.625 141.089)'>
<path d='M 135.774 87.5576L 128.246 85.5405L 128.246 89.5748L 135.774 87.5576Z' fill='none' stroke='#000000' stroke-linecap='round' stroke-linejoin='round' stroke-miterlimit='10.0375' stroke-width='0.501875'/>
</g>
</g>
<use x='250.748065' y='224.67269' xlink:href='#g2-120'/>
<g transform='matrix(0.996264 0 0 0.996264 123.625 141.089)'>
<path d='M 7.19618 188.009L 7.49753 186.206L 7.79889 184.411L 8.10024 182.626L 8.4016 180.849L 8.70295 179.082L 9.00431 177.323L 9.30566 175.574L 9.60702 173.834L 9.90837 172.102L 10.2097 170.38L 10.5111 168.667L 10.8124 166.963L 11.1138 165.268L 11.4152 163.582L 11.7165 161.904L 12.0179 160.236L 12.3192 158.578L 12.6206 156.928L 12.9219 155.287L 13.2233 153.655L 13.5246 152.032L 13.826 150.418L 14.1273 148.814L 14.4287 147.218L 14.7301 145.631L 15.0314 144.054L 15.3328 142.485L 15.6341 140.926L 15.9355 139.375L 16.2368 137.834L 16.5382 136.301L 16.8395 134.778L 17.1409 133.264L 17.4423 131.758L 17.7436 130.262L 18.045 128.775L 18.3463 127.297L 18.6477 125.828L 18.949 124.368L 19.2504 122.917L 19.5517 121.475L 19.8531 120.042L 20.1545 118.618L 20.4558 117.203L 20.7572 115.797L 21.0585 114.4L 21.3599 113.013L 21.6612 111.634L 21.9626 110.264L 22.2639 108.904L 22.5653 107.552L 22.8667 106.209L 23.168 104.876L 23.4694 103.552L 23.7707 102.236L 24.0721 100.93L 24.3734 99.6324L 24.6748 98.3441L 24.9761 97.0649L 25.2775 95.7947L 25.5789 94.5335L 25.8802 93.2813L 26.1816 92.0383L 26.4829 90.8042L 26.7843 89.5792L 27.0856 88.3632L 27.387 87.1563L 27.6883 85.9584L 27.9897 84.7696L 28.2911 83.5898L 28.5924 82.419L 28.8938 81.2573L 29.1951 80.1046L 29.4965 78.9609L 29.7978 77.8263L 30.0992 76.7008L 30.4005 75.5843L 30.7019 74.4768L 31.0032 73.3783L 31.3046 72.2889L 31.606 71.2086L 31.9073 70.1373L 32.2087 69.075L 32.51 68.0217L 32.8114 66.9775L 33.1127 65.9424L 33.4141 64.9163L 33.7154 63.8992L 34.0168 62.8912L 34.3182 61.8922L 34.6195 60.9022L 34.9209 59.9213L 35.2222 58.9494L 35.5236 57.9866L 35.8249 57.0328L 36.1263 56.0881L 36.4276 55.1524L 36.729 54.2257L 37.0304 53.3081L 37.3317 52.3995L 37.6331 51.4999L 37.9344 50.6094L 38.2358 49.728L 38.5371 48.8555L 38.8385 47.9922L 39.1398 47.1378L 39.4412 46.2925L 39.7426 45.4563L 40.0439 44.629L 40.3453 43.8109L 40.6466 43.0017L 40.948 42.2016L 41.2493 41.4106L 41.5507 40.6285L 41.852 39.8556L 42.1534 39.0916L 42.4548 38.3367L 42.7561 37.5909L 43.0575 36.8541L 43.3588 36.1263L 43.6602 35.4076L 43.9615 34.6979L 44.2629 33.9972L 44.5642 33.3056L 44.8656 32.623L 45.167 31.9495L 45.4683 31.285L 45.7697 30.6296L 46.071 29.9832L 46.3724 29.3458L 46.6737 28.7175L 46.9751 28.0982L 47.2764 27.4879L 47.5778 26.8867L 47.8791 26.2946L 48.1805 25.7114L 48.4819 25.1374L 48.7832 24.5723L 49.0846 24.0163L 49.3859 23.4694L 49.6873 22.9314L 49.9886 22.4026L 50.29 21.8827L 50.5913 21.3719L 50.8927 20.8702L 51.1941 20.3775L 51.4954 19.8938L 51.7968 19.4191L 52.0981 18.9536L 52.3995 18.497L 52.7008 18.0495L 53.0022 17.611L 53.3035 17.1816L 53.6049 16.7612L 53.9063 16.3498L 54.2076 15.9475L 54.509 15.5543L 54.8103 15.17L 55.1117 14.7949L 55.413 14.4287L 55.7144 14.0716L 56.0157 13.7235L 56.3171 13.3845L 56.6185 13.0545L 56.9198 12.7336L 57.2212 12.4217L 57.5225 12.1188L 57.8239 11.825L 58.1252 11.5402L 58.4266 11.2645L 58.7279 10.9978L 59.0293 10.7401L 59.3307 10.4915L 59.632 10.2519L 59.9334 10.0214L 60.2347 9.79989L 60.5361 9.58743L 60.8374 9.38402L 61.1388 9.18964L 61.4401 9.00431L 61.7415 8.82802L 62.0429 8.66076L 62.3442 8.50255L 62.6456 8.35338L 62.9469 8.21325L 63.2483 8.08216L 63.5496 7.96011L 63.851 7.8471L 64.1523 7.74314L 64.4537 7.64821L 64.7551 7.56232L 65.0564 7.48548L 65.3578 7.41767L 65.6591 7.35891L 65.9605 7.30918L 66.2618 7.2685L 66.5632 7.23686L 66.8645 7.21426L 67.1659 7.2007L 67.4672 7.19618L 67.7686 7.2007L 68.07 7.21426L 68.3713 7.23686L 68.6727 7.2685L 68.974 7.30918L 69.2754 7.35891L 69.5767 7.41767L 69.8781 7.48548L 70.1794 7.56232L 70.4808 7.64821L 70.7822 7.74314L 71.0835 7.8471L 71.3849 7.96011L 71.6862 8.08216L 71.9876 8.21325L 72.2889 8.35338L 72.5903 8.50255L 72.8916 8.66076L 73.193 8.82802L 73.4944 9.00431L 73.7957 9.18964L 74.0971 9.38402L 74.3984 9.58743L 74.6998 9.79989L 75.0011 10.0214L 75.3025 10.2519L 75.6038 10.4915L 75.9052 10.7401L 76.2066 10.9978L 76.5079 11.2645L 76.8093 11.5402L 77.1106 11.825L 77.412 12.1188L 77.7133 12.4217L 78.0147 12.7336L 78.316 13.0545L 78.6174 13.3845L 78.9188 13.7235L 79.2201 14.0716L 79.5215 14.4287L 79.8228 14.7949L 80.1242 15.17L 80.4255 15.5543L 80.7269 15.9475L 81.0282 16.3498L 81.3296 16.7612L 81.631 17.1816L 81.9323 17.611L 82.2337 18.0495L 82.535 18.497L 82.8364 18.9536L 83.1377 19.4191L 83.4391 19.8938L 83.7404 20.3775L 84.0418 20.8702L 84.3431 21.3719L 84.6445 21.8827L 84.9459 22.4026L 85.2472 22.9314L 85.5486 23.4694L 85.8499 24.0163L 86.1513 24.5723L 86.4526 25.1374L 86.754 25.7114L 87.0553 26.2946L 87.3567 26.8867L 87.6581 27.4879L 87.9594 28.0982L 88.2608 28.7175L 88.5621 29.3458L 88.8635 29.9832L 89.1648 30.6296L 89.4662 31.285L 89.7675 31.9495L 90.0689 32.623L 90.3703 33.3056L 90.6716 33.9972L 90.973 34.6979L 91.2743 35.4076L 91.5757 36.1263L 91.877 36.8541L 92.1784 37.5909L 92.4797 38.3367L 92.7811 39.0916L 93.0825 39.8556L 93.3838 40.6285L 93.6852 41.4106L 93.9865 42.2016L 94.2879 43.0017L 94.5892 43.8109L 94.8906 44.629L 95.1919 45.4563L 95.4933 46.2925L 95.7947 47.1378L 96.096 47.9922L 96.3974 48.8555L 96.6987 49.728L 97.0001 50.6094L 97.3014 51.4999L 97.6028 52.3995L 97.9041 53.3081L 98.2055 54.2257L 98.5069 55.1524L 98.8082 56.0881L 99.1096 57.0328L 99.4109 57.9866L 99.7123 58.9494L 100.014 59.9213L 100.315 60.9022L 100.616 61.8922L 100.918 62.8912L 101.219 63.8992L 101.52 64.9163L 101.822 65.9424L 102.123 66.9775L 102.424 68.0217L 102.726 69.075L 103.027 70.1373L 103.329 71.2086L 103.63 72.2889L 103.931 73.3783L 104.233 74.4768L 104.534 75.5843L 104.835 76.7008L 105.137 77.8263L 105.438 78.9609L 105.739 80.1046L 106.041 81.2573L 106.342 82.419L 106.643 83.5898L 106.945 84.7696L 107.246 85.9584L 107.548 87.1563L 107.849 88.3632L 108.15 89.5792L 108.452 90.8042L 108.753 92.0383L 109.054 93.2813L 109.356 94.5335L 109.657 95.7947L 109.958 97.0649L 110.26 98.3441L 110.561 99.6324L 110.862 100.93L 111.164 102.236L 111.465 103.552L 111.766 104.876L 112.068 106.209L 112.369 107.552L 112.671 108.904L 112.972 110.264L 113.273 111.634L 113.575 113.013L 113.876 114.4L 114.177 115.797L 114.479 117.203L 114.78 118.618L 115.081 120.042L 115.383 121.475L 115.684 122.917L 115.985 124.368L 116.287 125.828L 116.588 127.297L 116.89 128.775L 117.191 130.262L 117.492 131.758L 117.794 133.264L 118.095 134.778L 118.396 136.301L 118.698 137.834L 118.999 139.375L 119.3 140.926L 119.602 142.485L 119.903 144.054L 120.204 145.631L 120.506 147.218L 120.807 148.814L 121.109 150.418L 121.41 152.032L 121.711 153.655L 122.013 155.287L 122.314 156.928L 122.615 158.578L 122.917 160.236L 123.218 161.904L 123.519 163.582L 123.821 165.268L 124.122 166.963L 124.423 168.667L 124.725 170.38L 125.026 172.102L 125.327 173.834L 125.629 175.574L 125.93 177.323L 126.232 179.082L 126.533 180.849L 126.834 182.626L 127.136 184.411L 127.437 186.206L 127.738 188.009' fill='none' stroke='#000000' stroke-linecap='round' stroke-linejoin='round' stroke-miterlimit='10.0375' stroke-width='2.0075'/>
</g>
<use x='204.437856' y='312.013254' xlink:href='#g2-97'/>
<use x='213.90363' y='312.013254' xlink:href='#g2-60'/>
<use x='226.329111' y='312.013254' xlink:href='#g4-48'/>
<use x='204.437856' y='292.23046' xlink:href='#g4-1'/>
<use x='217.513669' y='292.23046' xlink:href='#g2-62'/>
<use x='229.93915' y='292.23046' xlink:href='#g4-48'/>
<use x='176.902974' y='236.330071' xlink:href='#g0-0'/>
<use x='183.489481' y='236.330071' xlink:href='#g1-98'/>
<rect x='176.902974' y='237.849155' height='.398484' width='10.209091'/>
<use x='177.641431' y='245.159813' xlink:href='#g3-50'/>
<use x='181.875614' y='245.159813' xlink:href='#g1-97'/>
</g>
</svg>