<?xml version='1.0' encoding='UTF-8'?>
<!-- This file was generated by dvisvgm 2.13.1 -->
<svg version='1.1' xmlns='http://www.w3.org/2000/svg' xmlns:xlink='http://www.w3.org/1999/xlink' width='141.732283pt' height='125.431856pt' viewBox='127.43317 69.540584 141.732283 125.431856'>
<defs>
<path id='g1-49' d='M4.131704-9.195911C4.131704-9.525874 4.131704-9.54022 3.84478-9.54022C3.500472-9.152873 2.783162-8.622064 1.305504-8.622064V-8.206024C1.635466-8.206024 2.352776-8.206024 3.141817-8.579025V-1.104657C3.141817-.588194 3.098778-.41604 1.836313-.41604H1.391581V0C1.778928-.028692 3.170509-.028692 3.643934-.028692S5.494593-.028692 5.88194 0V-.41604H5.437208C4.174743-.41604 4.131704-.588194 4.131704-1.104657V-9.195911Z'/>
<path id='g1-50' d='M6.312326-2.410161H5.99671C5.953671-2.166276 5.838902-1.377235 5.69544-1.147696C5.595016-1.01858 4.777283-1.01858 4.346897-1.01858H1.692851C2.080198-1.348542 2.955316-2.266699 3.328317-2.611008C5.508939-4.619475 6.312326-5.365477 6.312326-6.785751C6.312326-8.435563 5.006822-9.54022 3.342664-9.54022S.702964-8.119947 .702964-6.886174C.702964-6.154518 1.334196-6.154518 1.377235-6.154518C1.678505-6.154518 2.051506-6.369711 2.051506-6.828789C2.051506-7.230483 1.778928-7.50306 1.377235-7.50306C1.248119-7.50306 1.219427-7.50306 1.176388-7.488714C1.448966-8.464255 2.22366-9.12418 3.156163-9.12418C4.37559-9.12418 5.121592-8.105601 5.121592-6.785751C5.121592-5.566324 4.418628-4.504705 3.600895-3.586549L.702964-.344309V0H5.939325L6.312326-2.410161Z'/>
<path id='g0-65' d='M2.438853-1.592428C1.936736-.746002 1.448966-.459078 .760348-.41604C.60254-.401693 .487771-.401693 .487771-.143462C.487771-.057385 .559502 0 .659925 0C.918157 0 1.563735-.028692 1.821967-.028692C2.238007-.028692 2.697085 0 3.098778 0C3.184855 0 3.35701 0 3.35701-.272578C3.35701-.401693 3.24224-.41604 3.156163-.41604C2.826201-.444732 2.553623-.559502 2.553623-.90381C2.553623-1.104657 2.6397-1.262465 2.826201-1.578082L3.916511-3.385702H7.574791C7.589138-3.256586 7.589138-3.141817 7.603484-3.012701C7.646522-2.6397 7.818677-1.147696 7.818677-.875118C7.818677-.444732 7.087021-.41604 6.857482-.41604C6.699673-.41604 6.541865-.41604 6.541865-.157808C6.541865 0 6.670981 0 6.757058 0C7.000943 0 7.287867-.028692 7.531753-.028692H8.349486C9.224604-.028692 9.855836 0 9.870183 0C9.970606 0 10.128414 0 10.128414-.272578C10.128414-.41604 9.999298-.41604 9.784105-.41604C8.995065-.41604 8.980718-.545155 8.93768-.975541L8.062562-9.927567C8.03387-10.214491 7.976485-10.243184 7.818677-10.243184C7.675215-10.243184 7.589138-10.214491 7.460022-9.999298L2.438853-1.592428ZM4.160397-3.801742L7.043982-8.622064L7.531753-3.801742H4.160397Z'/>
<path id='g0-66' d='M5.250708-8.82291C5.379823-9.35372 5.437208-9.382412 5.99671-9.382412H7.861715C9.482835-9.382412 9.482835-8.005177 9.482835-7.876061C9.482835-6.71402 8.320793-5.236361 6.427096-5.236361H4.361243L5.250708-8.82291ZM7.675215-5.121592C9.23895-5.408516 10.659223-6.498827 10.659223-7.818677C10.659223-8.93768 9.669336-9.798452 8.048216-9.798452H3.443087C3.170509-9.798452 3.041393-9.798452 3.041393-9.525874C3.041393-9.382412 3.170509-9.382412 3.385702-9.382412C4.26082-9.382412 4.26082-9.267642 4.26082-9.109834C4.26082-9.081142 4.26082-8.995065 4.203435-8.779872L2.266699-1.061618C2.137583-.559502 2.108891-.41604 1.104657-.41604C.832079-.41604 .688617-.41604 .688617-.157808C.688617 0 .774695 0 1.061618 0H5.982364C8.177332 0 9.870183-1.664159 9.870183-3.113124C9.870183-4.289513 8.837257-5.006822 7.675215-5.121592ZM5.638055-.41604H3.701318C3.500472-.41604 3.471779-.41604 3.385702-.430386C3.227894-.444732 3.213548-.473424 3.213548-.588194C3.213548-.688617 3.24224-.774695 3.270933-.90381L4.275166-4.949438H6.972251C8.665102-4.949438 8.665102-3.371356 8.665102-3.256586C8.665102-1.879352 7.416983-.41604 5.638055-.41604Z'/>
<path id='g0-67' d='M10.716608-9.970606C10.716608-10.099722 10.616185-10.099722 10.587492-10.099722S10.501415-10.099722 10.386646-9.95626L9.396758-8.751179C8.894641-9.611951 8.105601-10.099722 7.029636-10.099722C3.930858-10.099722 .71731-6.957905 .71731-3.586549C.71731-1.190734 2.395815 .30127 4.490359 .30127C5.638055 .30127 6.642289-.186501 7.474368-.889464C8.722487-1.936736 9.095488-3.328317 9.095488-3.443087C9.095488-3.572203 8.980718-3.572203 8.93768-3.572203C8.808564-3.572203 8.794218-3.486126 8.765526-3.428741C8.105601-1.190734 6.168864-.11477 4.734245-.11477C3.213548-.11477 1.893698-1.090311 1.893698-3.127471C1.893698-3.586549 2.03716-6.082787 3.65828-7.962139C4.447321-8.880295 5.795863-9.683682 7.158752-9.683682C8.736833-9.683682 9.439797-8.378178 9.439797-6.914866C9.439797-6.541865 9.396758-6.226249 9.396758-6.168864C9.396758-6.039748 9.54022-6.039748 9.583259-6.039748C9.741067-6.039748 9.755413-6.054095 9.812798-6.312326L10.716608-9.970606Z'/>
<path id='g0-72' d='M10.730954-8.751179C10.86007-9.23895 10.888763-9.382412 11.907342-9.382412C12.165574-9.382412 12.309036-9.382412 12.309036-9.640643C12.309036-9.798452 12.17992-9.798452 12.093843-9.798452C11.835611-9.798452 11.534341-9.769759 11.261764-9.769759H9.568913C9.296335-9.769759 8.995065-9.798452 8.722487-9.798452C8.622064-9.798452 8.449909-9.798452 8.449909-9.525874C8.449909-9.382412 8.550333-9.382412 8.82291-9.382412C9.683682-9.382412 9.683682-9.267642 9.683682-9.109834C9.683682-9.081142 9.683682-8.995065 9.626297-8.779872L8.751179-5.308092H4.418628L5.2794-8.751179C5.408516-9.23895 5.437208-9.382412 6.455788-9.382412C6.71402-9.382412 6.857482-9.382412 6.857482-9.640643C6.857482-9.798452 6.728366-9.798452 6.642289-9.798452C6.384057-9.798452 6.082787-9.769759 5.810209-9.769759H4.117358C3.84478-9.769759 3.54351-9.798452 3.270933-9.798452C3.170509-9.798452 2.998355-9.798452 2.998355-9.525874C2.998355-9.382412 3.098778-9.382412 3.371356-9.382412C4.232128-9.382412 4.232128-9.267642 4.232128-9.109834C4.232128-9.081142 4.232128-8.995065 4.174743-8.779872L2.238007-1.061618C2.108891-.559502 2.080198-.41604 1.090311-.41604C.760348-.41604 .659925-.41604 .659925-.143462C.659925 0 .817733 0 .860772 0C1.119003 0 1.420273-.028692 1.692851-.028692H3.385702C3.65828-.028692 3.95955 0 4.232128 0C4.346897 0 4.504705 0 4.504705-.272578C4.504705-.41604 4.37559-.41604 4.160397-.41604C3.285279-.41604 3.285279-.530809 3.285279-.674271C3.285279-.688617 3.285279-.789041 3.313971-.90381L4.303859-4.892053H8.650756C8.406871-3.945204 7.675215-.946849 7.646522-.860772C7.488714-.430386 7.259175-.430386 6.412749-.41604C6.240595-.41604 6.111479-.41604 6.111479-.143462C6.111479 0 6.269288 0 6.312326 0C6.570558 0 6.871828-.028692 7.144405-.028692H8.837257C9.109834-.028692 9.411104 0 9.683682 0C9.798452 0 9.95626 0 9.95626-.272578C9.95626-.41604 9.827144-.41604 9.611951-.41604C8.736833-.41604 8.736833-.530809 8.736833-.674271C8.736833-.688617 8.736833-.789041 8.765526-.90381L10.730954-8.751179Z'/>
</defs>
<g id='page1'>
<g transform='matrix(0.996264 0 0 0.996264 127.433 69.5406)'>
<path d='M 71.2901 15.7411L 16.7767 110.161L 125.803 110.161L 71.2901 15.7411Z' fill='none' stroke='#000000' stroke-linecap='round' stroke-linejoin='round' stroke-miterlimit='10.0375' stroke-width='1.00375'/>
</g>
<use x='193.195515' y='80.978572' xlink:href='#g0-65'/>
<use x='129.131753' y='189.053881' xlink:href='#g0-66'/>
<use x='256.394159' y='189.053881' xlink:href='#g0-67'/>
<use x='229.239291' y='132.058051' xlink:href='#g1-50'/>
<use x='160.658547' y='132.058051' xlink:href='#g1-50'/>
<g transform='matrix(0.996264 0 0 0.996264 127.433 69.5406)'>
<circle cx='71.2901' cy='110.161' fill='#000000' r='1.50562'/>
</g>
<use x='192.087168' y='193.217649' xlink:href='#g0-72'/>
<g transform='matrix(0.996264 0 0 0.996264 127.433 69.5406)'>
<path d='M 71.2901 15.7411L 71.2901 110.161' fill='none' stroke='#000000' stroke-linecap='round' stroke-linejoin='round' stroke-miterlimit='10.0375' stroke-width='0.501875'/>
</g>
<use x='222.103802' y='192.659728' xlink:href='#g1-49'/>
<use x='167.794066' y='192.659728' xlink:href='#g1-49'/>
<g transform='matrix(0.996264 0 0 0.996264 127.433 69.5406)'>
<path d='M 80.0768 110.161L 80.0768 101.374L 71.2901 101.374' fill='none' stroke='#000000' stroke-linecap='butt' stroke-linejoin='miter' stroke-miterlimit='10.0375' stroke-width='0.501875'/>
</g>
</g>
</svg>