<?xml version='1.0' encoding='UTF-8'?>
<!-- This file was generated by dvisvgm 2.13.1 -->
<svg version='1.1' xmlns='http://www.w3.org/2000/svg' xmlns:xlink='http://www.w3.org/1999/xlink' width='198.425197pt' height='112.861168pt' viewBox='105.11727 151.793843 198.425197 112.861168'>
<defs>
<path id='g1-49' d='M4.131704-9.195911C4.131704-9.525874 4.131704-9.54022 3.84478-9.54022C3.500472-9.152873 2.783162-8.622064 1.305504-8.622064V-8.206024C1.635466-8.206024 2.352776-8.206024 3.141817-8.579025V-1.104657C3.141817-.588194 3.098778-.41604 1.836313-.41604H1.391581V0C1.778928-.028692 3.170509-.028692 3.643934-.028692S5.494593-.028692 5.88194 0V-.41604H5.437208C4.174743-.41604 4.131704-.588194 4.131704-1.104657V-9.195911Z'/>
<path id='g1-50' d='M6.312326-2.410161H5.99671C5.953671-2.166276 5.838902-1.377235 5.69544-1.147696C5.595016-1.01858 4.777283-1.01858 4.346897-1.01858H1.692851C2.080198-1.348542 2.955316-2.266699 3.328317-2.611008C5.508939-4.619475 6.312326-5.365477 6.312326-6.785751C6.312326-8.435563 5.006822-9.54022 3.342664-9.54022S.702964-8.119947 .702964-6.886174C.702964-6.154518 1.334196-6.154518 1.377235-6.154518C1.678505-6.154518 2.051506-6.369711 2.051506-6.828789C2.051506-7.230483 1.778928-7.50306 1.377235-7.50306C1.248119-7.50306 1.219427-7.50306 1.176388-7.488714C1.448966-8.464255 2.22366-9.12418 3.156163-9.12418C4.37559-9.12418 5.121592-8.105601 5.121592-6.785751C5.121592-5.566324 4.418628-4.504705 3.600895-3.586549L.702964-.344309V0H5.939325L6.312326-2.410161Z'/>
<path id='g1-51' d='M2.6397-5.150284C2.395815-5.135938 2.33843-5.121592 2.33843-4.992476C2.33843-4.849014 2.410161-4.849014 2.668392-4.849014H3.328317C4.547744-4.849014 5.092899-3.84478 5.092899-2.467546C5.092899-.588194 4.117358-.086077 3.414395-.086077C2.725777-.086077 1.549389-.41604 1.133349-1.362889C1.592428-1.291158 2.008467-1.549389 2.008467-2.065852C2.008467-2.481892 1.707197-2.768816 1.305504-2.768816C.961195-2.768816 .588194-2.567969 .588194-2.022814C.588194-.746002 1.865005 .30127 3.457433 .30127C5.16463 .30127 6.427096-1.004234 6.427096-2.453199C6.427096-3.773049 5.365477-4.805976 3.988242-5.049861C5.236361-5.408516 6.039748-6.455788 6.039748-7.574791C6.039748-8.708141 4.86336-9.54022 3.471779-9.54022C2.03716-9.54022 .975541-8.665102 .975541-7.61783C.975541-7.043982 1.420273-6.929213 1.635466-6.929213C1.936736-6.929213 2.281045-7.144405 2.281045-7.574791C2.281045-8.03387 1.936736-8.234716 1.62112-8.234716C1.535043-8.234716 1.506351-8.234716 1.463312-8.22037C2.008467-9.195911 3.35701-9.195911 3.428741-9.195911C3.902165-9.195911 4.834668-8.980718 4.834668-7.574791C4.834668-7.302214 4.791629-6.498827 4.37559-5.88194C3.945204-5.250708 3.457433-5.207669 3.070086-5.193323L2.6397-5.150284Z'/>
<path id='g1-63' d='M3.270933-3.471779C3.270933-4.318205 3.615241-5.58067 5.064207-6.656635C5.465901-6.957905 5.838902-7.402637 5.838902-8.148639C5.838902-9.023757 5.236361-10.099722 3.170509-10.099722C1.62112-10.099722 .774695-9.095488 .774695-8.177332C.774695-7.660868 1.162042-7.546099 1.377235-7.546099C1.62112-7.546099 1.965429-7.718253 1.965429-8.148639C1.965429-8.478602 1.721543-8.736833 1.362889-8.736833C1.276811-8.736833 1.248119-8.736833 1.219427-8.722487C1.535043-9.468489 2.367122-9.812798 3.127471-9.812798C4.748591-9.812798 4.748591-8.765526 4.748591-8.22037C4.748591-7.373945 4.490359-7.101367 4.246474-6.843135C3.270933-5.795863 2.955316-4.461667 2.955316-3.586549V-2.897932C2.955316-2.6397 2.955316-2.582315 3.113124-2.582315S3.270933-2.682739 3.270933-2.94097V-3.471779ZM3.801742-.702964C3.801742-1.075965 3.486126-1.391581 3.113124-1.391581C2.682739-1.391581 2.410161-1.047272 2.410161-.702964C2.410161-.272578 2.75447 0 3.098778 0C3.500472 0 3.801742-.315616 3.801742-.702964Z'/>
<path id='g1-107' d='M4.016935-3.801742C4.016935-3.816088 3.916511-3.930858 3.916511-3.945204C3.916511-3.988242 4.820322-4.762937 4.935091-4.877707C5.924979-5.738478 6.556211-5.752824 6.857482-5.767171V-6.18321C6.570558-6.154518 6.197557-6.154518 5.767171-6.154518C5.39417-6.154518 4.662514-6.154518 4.332551-6.18321V-5.767171C4.576436-5.752824 4.748591-5.623709 4.748591-5.39417C4.748591-5.107246 4.461667-4.849014 4.447321-4.849014L2.395815-3.041393V-9.95626L.401693-9.798452V-9.382412C1.377235-9.382412 1.492004-9.281989 1.492004-8.579025V-1.061618C1.492004-.41604 1.334196-.41604 .401693-.41604V0C.803387-.028692 1.492004-.028692 1.92239-.028692S3.041393-.028692 3.443087 0V-.41604C2.52493-.41604 2.352776-.41604 2.352776-1.061618V-2.582315L3.270933-3.385702L4.648167-1.405927C4.86336-1.104657 4.963784-.946849 4.963784-.746002C4.963784-.487771 4.762937-.41604 4.461667-.41604V0C4.820322-.028692 5.523285-.028692 5.910633-.028692C6.527519-.028692 6.556211-.028692 7.173098 0V-.41604C6.785751-.41604 6.341018-.41604 5.939325-1.004234L4.016935-3.801742Z'/>
<path id='g1-109' d='M10.286222-3.486126C10.286222-4.820322 10.286222-5.222015 9.95626-5.681093C9.54022-6.240595 8.865949-6.326672 8.378178-6.326672C7.187444-6.326672 6.584904-5.465901 6.355365-4.906399C6.154518-6.011056 5.379823-6.326672 4.476013-6.326672C3.084432-6.326672 2.539277-5.135938 2.424507-4.849014H2.410161V-6.326672L.459078-6.168864V-5.752824C1.43462-5.752824 1.549389-5.652401 1.549389-4.949438V-1.061618C1.549389-.41604 1.391581-.41604 .459078-.41604V0C.832079-.028692 1.606774-.028692 2.008467-.028692C2.424507-.028692 3.199202-.028692 3.572203 0V-.41604C2.654046-.41604 2.481892-.41604 2.481892-1.061618V-3.730011C2.481892-5.236361 3.471779-6.039748 4.361243-6.039748S5.451554-5.308092 5.451554-4.432974V-1.061618C5.451554-.41604 5.293746-.41604 4.361243-.41604V0C4.734245-.028692 5.508939-.028692 5.910633-.028692C6.326672-.028692 7.101367-.028692 7.474368 0V-.41604C6.556211-.41604 6.384057-.41604 6.384057-1.061618V-3.730011C6.384057-5.236361 7.373945-6.039748 8.263409-6.039748S9.35372-5.308092 9.35372-4.432974V-1.061618C9.35372-.41604 9.195911-.41604 8.263409-.41604V0C8.63641-.028692 9.411104-.028692 9.812798-.028692C10.228838-.028692 11.003532-.028692 11.376533 0V-.41604C10.659223-.41604 10.300568-.41604 10.286222-.846426V-3.486126Z'/>
<path id='g0-82' d='M5.2794-8.82291C5.408516-9.35372 5.465901-9.382412 6.025402-9.382412H7.058328C8.292101-9.382412 9.210258-9.009411 9.210258-7.890408C9.210258-7.158752 8.837257-5.049861 5.953671-5.049861H4.332551L5.2794-8.82291ZM7.273521-4.877707C9.052449-5.265054 10.44403-6.412749 10.44403-7.646522C10.44403-8.765526 9.310681-9.798452 7.31656-9.798452H3.428741C3.141817-9.798452 3.012701-9.798452 3.012701-9.525874C3.012701-9.382412 3.113124-9.382412 3.385702-9.382412C4.246474-9.382412 4.246474-9.267642 4.246474-9.109834C4.246474-9.081142 4.246474-8.995065 4.189089-8.779872L2.252353-1.061618C2.123237-.559502 2.094545-.41604 1.104657-.41604C.774695-.41604 .674271-.41604 .674271-.143462C.674271 0 .832079 0 .875118 0C1.133349 0 1.43462-.028692 1.707197-.028692H3.400048C3.65828-.028692 3.95955 0 4.217782 0C4.332551 0 4.490359 0 4.490359-.272578C4.490359-.41604 4.361243-.41604 4.146051-.41604C3.270933-.41604 3.270933-.530809 3.270933-.674271C3.270933-.688617 3.270933-.789041 3.299625-.90381L4.26082-4.762937H5.982364C7.345252-4.762937 7.603484-3.902165 7.603484-3.428741C7.603484-3.213548 7.460022-2.654046 7.359598-2.281045C7.20179-1.62112 7.158752-1.463312 7.158752-1.190734C7.158752-.172154 7.990831 .30127 8.952026 .30127C10.114068 .30127 10.616185-1.119003 10.616185-1.31985C10.616185-1.420273 10.544454-1.463312 10.458377-1.463312C10.343607-1.463312 10.314915-1.377235 10.286222-1.262465C9.941914-.243885 9.35372 .014346 8.995065 .014346S8.406871-.143462 8.406871-.789041C8.406871-1.133349 8.579025-2.438853 8.593371-2.510584C8.665102-3.041393 8.665102-3.098778 8.665102-3.213548C8.665102-4.26082 7.818677-4.705552 7.273521-4.877707Z'/>
<path id='g0-83' d='M9.109834-9.970606C9.109834-10.099722 9.009411-10.099722 8.980718-10.099722C8.923334-10.099722 8.908988-10.085376 8.736833-9.870183C8.650756-9.769759 8.062562-9.023757 8.048216-9.009411C7.574791-9.941914 6.627942-10.099722 6.025402-10.099722C4.203435-10.099722 2.553623-8.435563 2.553623-6.814443C2.553623-5.738478 3.199202-5.107246 3.902165-4.86336C4.059973-4.805976 4.906399-4.576436 5.336785-4.476013C6.068441-4.275166 6.254941-4.217782 6.556211-3.902165C6.613596-3.830434 6.90052-3.500472 6.90052-2.826201C6.90052-1.492004 5.666747-.11477 4.232128-.11477C3.05574-.11477 1.750236-.616886 1.750236-2.22366C1.750236-2.496238 1.807621-2.840547 1.850659-2.984009C1.850659-3.027047 1.865005-3.098778 1.865005-3.127471C1.865005-3.184855 1.836313-3.256586 1.721543-3.256586C1.592428-3.256586 1.578082-3.227894 1.520697-2.984009L.789041-.043039C.789041-.028692 .731656 .157808 .731656 .172154C.731656 .30127 .846426 .30127 .875118 .30127C.932503 .30127 .946849 .286924 1.119003 .071731L1.778928-.789041C2.123237-.272578 2.869239 .30127 4.203435 .30127C6.054095 .30127 7.746946-1.492004 7.746946-3.285279C7.746946-3.887819 7.603484-4.418628 7.058328-4.949438C6.757058-5.250708 6.498827-5.322439 5.178977-5.666747C4.217782-5.924979 4.088666-5.968017 3.830434-6.197557C3.586549-6.441442 3.400048-6.785751 3.400048-7.273521C3.400048-8.478602 4.619475-9.712374 5.982364-9.712374C7.388291-9.712374 8.048216-8.851603 8.048216-7.488714C8.048216-7.115713 7.976485-6.728366 7.976485-6.670981C7.976485-6.541865 8.091254-6.541865 8.134293-6.541865C8.263409-6.541865 8.277755-6.584904 8.33514-6.814443L9.109834-9.970606Z'/>
<path id='g0-84' d='M5.982364-8.751179C6.068441-9.095488 6.097133-9.224604 6.312326-9.281989C6.427096-9.310681 6.90052-9.310681 7.20179-9.310681C8.63641-9.310681 9.310681-9.253296 9.310681-8.134293C9.310681-7.9191 9.253296-7.373945 9.167219-6.843135L9.152873-6.670981C9.152873-6.613596 9.210258-6.527519 9.296335-6.527519C9.439797-6.527519 9.439797-6.59925 9.482835-6.828789L9.898875-9.368066C9.927567-9.497182 9.927567-9.525874 9.927567-9.568913C9.927567-9.726721 9.84149-9.726721 9.554566-9.726721H1.707197C1.377235-9.726721 1.362889-9.712374 1.276811-9.454143L.401693-6.871828C.387347-6.843135 .344309-6.685327 .344309-6.670981C.344309-6.59925 .401693-6.527519 .487771-6.527519C.60254-6.527519 .631233-6.584904 .688617-6.771404C1.291158-8.507294 1.592428-9.310681 3.500472-9.310681H4.461667C4.805976-9.310681 4.949438-9.310681 4.949438-9.152873C4.949438-9.109834 4.949438-9.081142 4.877707-8.82291L2.955316-1.119003C2.811854-.559502 2.783162-.41604 1.262465-.41604C.90381-.41604 .803387-.41604 .803387-.143462C.803387 0 .961195 0 1.032926 0C1.391581 0 1.764582-.028692 2.123237-.028692H4.361243C4.719898-.028692 5.107246 0 5.465901 0C5.623709 0 5.767171 0 5.767171-.272578C5.767171-.41604 5.666747-.41604 5.293746-.41604C4.002589-.41604 4.002589-.545155 4.002589-.760348C4.002589-.774695 4.002589-.875118 4.059973-1.104657L5.982364-8.751179Z'/>
</defs>
<g id='page1'>
<g transform='matrix(0.996264 0 0 0.996264 105.117 151.794)'>
<path d='M 48.8905 98.3028L 183.78 74.5181L 34.1666 14.7996L 48.8905 98.3028Z' fill='none' stroke='#000000' stroke-linecap='round' stroke-linejoin='round' stroke-miterlimit='10.0375' stroke-width='1.00375'/>
</g>
<use x='142.239171' y='262.900217' xlink:href='#g0-82'/>
<use x='292.377127' y='231.808635' xlink:href='#g0-83'/>
<use x='127.286667' y='163.231829' xlink:href='#g0-84'/>
<use x='106.815856' y='214.660021' xlink:href='#g1-49'/>
<use x='113.839441' y='214.660021' xlink:href='#g1-51'/>
<use x='123.254024' y='214.660021' xlink:href='#g1-107'/>
<use x='130.667808' y='214.660021' xlink:href='#g1-109'/>
<use x='207.104492' y='251.904829' xlink:href='#g1-50'/>
<use x='214.128078' y='251.904829' xlink:href='#g1-49'/>
<use x='223.54266' y='251.904829' xlink:href='#g1-107'/>
<use x='230.956444' y='251.904829' xlink:href='#g1-109'/>
<g transform='matrix(0.996264 0 0 0.996264 105.117 151.794)'>
<path d='M 144.132 58.6923C 142.177 63.5861 141.101 68.9265 141.101 74.5181C 141.101 77.0463 141.321 79.5231 141.743 81.9305' fill='none' stroke='#000000' stroke-linecap='butt' stroke-linejoin='round' stroke-miterlimit='10.0375' stroke-width='0.501875'/>
</g>
<use x='235.119994' y='225.656033' xlink:href='#g1-63'/>
<g transform='matrix(0.996264 0 0 0.996264 105.117 151.794)'>
<path d='M 57.5437 96.777L 56.0179 88.1238L 47.3647 89.6496' fill='none' stroke='#000000' stroke-linecap='butt' stroke-linejoin='miter' stroke-miterlimit='10.0375' stroke-width='0.501875'/>
</g>
</g>
</svg>